{
  "project_info": {
    "project_number": "10427436303",
    "project_id": "thesis-project-b4323",
    "storage_bucket": "thesis-project-b4323.appspot.com"
  },
  "client": [
    {
      "client_info": {
        "mobilesdk_app_id": "1:10427436303:android:7df1118dc2bf3ea52f827a",
        "android_client_info": {
          "package_name": "com.example.hospitalproject"
        }
      },
      "oauth_client": [
        {
          "client_id": "10427436303-jiok5juj65ilsl3bcjfd1s6601msc6cn.apps.googleusercontent.com",
          "client_type": 3
        }
      ],
      "api_key": [
        {
          "current_key": "AIzaSyCivZCw_k7JxcfQSw4fnzaWLeHi2bm1Bw8"
        }
      ],
      "services": {
        "appinvite_service": {
          "other_platform_oauth_client": [
            {
              "client_id": "10427436303-jiok5juj65ilsl3bcjfd1s6601msc6cn.apps.googleusercontent.com",
              "client_type": 3
            },
            {
              "client_id": "10427436303-7qof0dn7po3tv4llt8oalgfr2gr7aan0.apps.googleusercontent.com",
              "client_type": 2,
              "ios_info": {
                "bundle_id": "com.example.hospitalproject"
              }
            }
          ]
        }
      }
    }
  ],
  "configuration_version": "1"
}