<svg width="64" height="64" xmlns="http://www.w3.org/2000/svg">

 <title/>
 <g>
  <title>background</title>
  <rect fill="none" id="canvas_background" height="402" width="582" y="-1" x="-1"/>
 </g>
 <g>
  <title>Layer 1</title>
  <path fill="#2e58ff" id="svg_6" d="m58,6l-4,0a6,6 0 0 0 -12,0l-20,0a6,6 0 0 0 -12,0l-4,0a6,6 0 0 0 -6,6l0,46a6,6 0 0 0 6,6l52,0a6,6 0 0 0 6,-6l0,-4a2,2 0 0 0 -4,0l0,4a2,2 0 0 1 -2,2l-52,0a2,2 0 0 1 -2,-2l0,-36l56,0l0,8a2,2 0 0 0 4,0l0,-18a6,6 0 0 0 -6,-6zm-10,-2a2,2 0 0 1 2,2l0,4a2,2 0 0 1 -4,0l0,-4a2,2 0 0 1 2,-2zm-32,0a2,2 0 0 1 2,2l0,4a2,2 0 0 1 -4,0l0,-4a2,2 0 0 1 2,-2zm-12,14l0,-6a2,2 0 0 1 2,-2l4,0a6,6 0 0 0 12,0l20,0a6,6 0 0 0 12,0l4,0a2,2 0 0 1 2,2l0,6l-56,0z" class="cls-4"/>
  <path fill="#2e58ff" id="svg_7" d="m62,36l-20,0l0,-5a2,2 0 0 0 -3.290001,-1.530001l-13,11.000002a2,2 0 0 0 0,3.059998l13,11a2,2 0 0 0 3.290001,-1.529999l0,-5l20,0a2,2 0 0 0 2,-2l0,-8a2,2 0 0 0 -2,-2zm-2,8l-20,0a2,2 0 0 0 -2,2l0,2.689999l-7.9,-6.689999l7.9,-6.689999l0,2.689999a2,2 0 0 0 2,2l20,0l0,4z" class="cls-4"/>
 </g>
</svg>